{
"Salesforce Apex Metadata APEX Class": {
		"prefix": "mdclass",
		"body": [
			"<?xml version=\"1.0\" encoding=\"UTF-8\"?>",
			"<ApexClass xmlns=\"http://soap.sforce.com/2006/04/metadata\">",
			"	<apiVersion>37.0</apiVersion>",
			"	<status>Active</status>",
			"</ApexClass>"
		],
		"description": "Salesforce Apex Class Metadata Information"
	},
	"Salesforce Apex Metadata Zip Resource": {
		"prefix": "mdzip",
		"body": [
			"<?xml version=\"1.0\" encoding=\"UTF-8\"?>",
			"<StaticResource xmlns=\"http://soap.sforce.com/2006/04/metadata\">",
			"	<cacheControl>Private</cacheControl>",
			"	<contentType>application/zip</contentType>",
			"</StaticResource>"
		],
		"description": "Salesforce Apex Metadata Zip Resource"
	},
	"Salesforce Apex Metadata Static Resource": {
		"prefix": "mdstatic",
		"body": [
			"<?xml version=\"1.0\" encoding=\"UTF-8\"?>",
			"<StaticResource xmlns=\"http://soap.sforce.com/2006/04/metadata\">",
			"	<cacheControl>Private</cacheControl>",
			"	<contentType>application/javascript</contentType>",
			"</StaticResource>"
		],
		"description": "Salesforce Apex Metadata Zip Resource"
	},
	"Salesforce Apex Metadata Apex Page": {
		"prefix": "mdpages",
		"body": [
			"<?xml version=\"1.0\" encoding=\"UTF-8\"?>",
			"<ApexPage xmlns=\"http://soap.sforce.com/2006/04/metadata\">",
			"	<apiVersion>37.0</apiVersion>",
			"	<label>Metadata Browser</label>",
			"</ApexPage>"
		],
		"description": "Salesforce Apex Metadata Zip Resource"
	},
	"Salesforce Apex Metadata Triggers": {
		"prefix": "mdtrigger",
		"body": [
			"<?xml version=\"1.0\" encoding=\"UTF-8\"?>",
			"<ApexTrigger xmlns=\"http://soap.sforce.com/2006/04/metadata\">",
			"	<apiVersion>37.0</apiVersion>",
			"	<status>Active</status>",
			"</ApexTrigger>"
		],
		"description": "Salesforce Apex Metadata Zip Resource"
	}
}